Working Class,0.3
Lower-Middle Class,0.4
Middle Class,0.6
Upper-Middle Class,0.5
Elites,0.6
Racial Majority,0.6
Racial Minority,0.4
Religious Majority,0.5
Religious Minority,0.2
Religious Fundamentalists,0.4
Unreligious,0.1
Uneducated,0.1
Skilled,0.2
Educated,0.2
Intellectuals,0.1
Youth,0.2
Adults,0.3
Middle Aged,0.3
Elderly,0.3
Men,0.2
Women,0.3
LGBTQ,0.1
Students,0.2
Low-Income Workers,0.4
Professional,0.3
Unemployed,0.1
Hikikomori,0.05
Homemakers,0.2
Self-Employed,0.2
Small Business Owners,0.3
Investors,0.3
Retirees,0.3
Unions,0.4
Liberals,0.4
Conservatives,0.5
Progressives,0.3
Libertarians,0.2
Socialists,0.1
Reactionaries,0.3
Nationalists,0.3
Greens,0.2
Climate Change Deniers,0.2
Racists,0.2
Sexists,0.1
Professional Couples,0.2
Working Families,0.3
Single Parents,0.1
Landlords,0.4
Tenants,0.1
Homeowners,0.4
Veterans,0.15
Disabled,0.15
Immigrants,0.1
Media Class,0.3